<svg width="24" height="26" viewBox="0 0 24 26" fill="none" xmlns="http://www.w3.org/2000/svg">
<path d="M23.0186 14.2187C22.8087 14.0088 22.5546 13.8483 22.2749 13.7489C21.9952 13.6495 21.6968 13.6138 21.4015 13.6443C21.4749 13.324 21.47 12.9906 21.3873 12.6726C21.3045 12.3545 21.1463 12.0611 20.9261 11.8172C20.7058 11.5733 20.4301 11.386 20.1221 11.2713C19.8141 11.1566 19.483 11.1178 19.1569 11.1582C19.1883 11.0118 19.204 10.8625 19.2038 10.7128C19.2035 10.1942 19.0106 9.69427 18.6625 9.30991C18.3144 8.92555 17.8359 8.68422 17.3199 8.63274L20.8653 5.08731C21.2575 4.69546 21.478 4.16386 21.4782 3.60946C21.4785 3.05506 21.2585 2.52327 20.8666 2.13108C20.4748 1.73889 19.9432 1.51843 19.3888 1.51819C18.8344 1.51795 18.3026 1.73795 17.9104 2.12981L10.9067 9.13343C10.4313 9.60888 9.85817 9.93817 9.24881 10.0861C8.79199 10.1971 8.33057 10.1983 7.95945 10.0933C7.59266 9.52267 7.24832 9.05564 7.17384 8.95565C6.41859 7.92493 5.72277 6.87584 4.9114 5.61734C4.07707 4.32517 3.02237 3.76963 2.01741 4.09382C1.74857 4.18029 1.4935 4.33792 1.23639 4.57539C0.780842 4.99701 0.364062 5.47016 0.398752 6.07442C0.424258 6.53736 0.691569 6.95261 1.09483 7.5811C1.32439 7.93691 1.60726 8.37997 1.90951 8.93295C2.09087 9.26581 2.22733 9.61092 2.37195 9.97643C2.42909 10.1213 2.48852 10.271 2.5505 10.421C2.73823 10.8702 2.97671 11.4653 3.15781 12.0843C3.45675 13.1046 3.29453 14.0863 3.12312 15.1247C2.99941 15.8728 2.87163 16.6464 2.91907 17.4565C2.97952 18.4814 3.26749 19.5205 3.77482 20.5449C4.25307 21.5108 4.90094 22.4069 5.70032 23.2052C7.17563 24.6805 8.99068 25.6447 10.8144 25.9196C11.1544 25.9716 11.4979 25.9981 11.8418 25.9987C12.3524 26.0009 12.8609 25.9352 13.3541 25.8033C14.179 25.5796 14.8896 25.1738 15.4661 24.5974L21.3178 18.7474L23.0184 17.0469C23.3928 16.6716 23.6032 16.163 23.6032 15.6328C23.6032 15.1027 23.393 14.5941 23.0186 14.2187ZM20.3129 12.2822C20.5531 12.5229 20.688 12.849 20.688 13.189C20.688 13.529 20.5531 13.8551 20.3129 14.0958L20.1907 14.2182L18.4901 15.9187L18.3675 16.0414C18.2487 16.1618 18.1072 16.2576 17.9513 16.3231C17.7954 16.3887 17.628 16.4227 17.4588 16.4233C17.2897 16.4239 17.1221 16.391 16.9657 16.3266C16.8093 16.2621 16.6672 16.1674 16.5476 16.0478C16.428 15.9282 16.3332 15.7861 16.2687 15.6297C16.2042 15.4733 16.1713 15.3057 16.1719 15.1366C16.1725 14.9674 16.2065 14.8 16.272 14.6441C16.3375 14.4881 16.4333 14.3467 16.5537 14.2279L17.527 13.2546L18.5001 12.2815C18.7408 12.0417 19.0668 11.9071 19.4066 11.9072C19.7464 11.9074 20.0723 12.0422 20.3129 12.2822ZM17.1135 9.38646C17.3756 9.38643 17.6318 9.46412 17.8497 9.60969C18.0675 9.75526 18.2374 9.96218 18.3377 10.2043C18.4379 10.4464 18.4642 10.7128 18.413 10.9698C18.3619 11.2268 18.2357 11.4629 18.0504 11.6481L16.985 12.7136L16.0119 13.6874L15.9201 13.7795C15.6716 14.0279 15.3346 14.1675 14.9832 14.1675C14.6318 14.1675 14.2948 14.0279 14.0464 13.7795C13.7979 13.531 13.6583 13.194 13.6583 12.8426C13.6583 12.4912 13.7979 12.1542 14.0464 11.9058L14.948 11.0038L16.1769 9.77493C16.2996 9.65147 16.4456 9.55358 16.6063 9.4869C16.7671 9.42022 16.9395 9.38608 17.1135 9.38646ZM14.9261 24.0577C13.9681 25.0154 12.5489 25.4095 10.9297 25.1644C9.26743 24.9134 7.60286 24.026 6.24234 22.6647C6.1063 22.5287 5.97562 22.3904 5.8503 22.2497C6.23577 22.3601 6.63463 22.4168 7.0356 22.4181C7.25285 22.4184 7.46974 22.4004 7.68398 22.3643C8.66879 22.1972 9.4493 21.6445 9.94106 20.766C9.96322 20.7294 9.97778 20.6888 9.98387 20.6464C9.98995 20.6041 9.98744 20.5609 9.97649 20.5196C9.96554 20.4782 9.94636 20.4395 9.92011 20.4058C9.89386 20.372 9.86108 20.3439 9.82371 20.323C9.78634 20.3022 9.74516 20.2891 9.70263 20.2846C9.6601 20.28 9.61709 20.2841 9.57617 20.2966C9.53524 20.309 9.49725 20.3296 9.46445 20.357C9.43165 20.3845 9.40472 20.4183 9.38527 20.4564C8.98533 21.1706 8.37699 21.6021 7.57736 21.7378C6.63642 21.8975 5.64803 21.6037 5.03051 21.1915C4.82013 20.8758 4.63006 20.547 4.46146 20.2072C4.00004 19.2752 3.73834 18.335 3.68376 17.4132C3.64091 16.6885 3.75645 15.9904 3.87838 15.2512C4.05692 14.1738 4.24057 13.0599 3.89291 11.8713C3.7011 11.2161 3.45241 10.596 3.25703 10.1277C3.19735 9.98485 3.13945 9.83844 3.08359 9.69688C2.93692 9.32601 2.78516 8.94264 2.58136 8.56846C2.2661 7.99048 1.97379 7.53467 1.73964 7.1684C1.41392 6.66056 1.17849 6.29352 1.16344 6.03131C1.15426 5.86934 1.21752 5.63672 1.75673 5.13858C1.92992 4.97814 2.09214 4.87509 2.25232 4.82357C3.17465 4.5259 3.96943 5.57091 4.26735 6.03386C5.08739 7.30435 5.79087 8.36492 6.55811 9.4112L6.5599 9.4135C6.95295 9.94149 8.01021 11.4693 8.17753 12.1879C8.20053 12.2867 8.26185 12.3723 8.348 12.426C8.39066 12.4525 8.43813 12.4704 8.4877 12.4786C8.53727 12.4868 8.58797 12.4852 8.63691 12.4738C8.68584 12.4624 8.73206 12.4415 8.77291 12.4122C8.81377 12.383 8.84846 12.346 8.87501 12.3033C8.90156 12.2607 8.91945 12.2132 8.92766 12.1636C8.93586 12.1141 8.93423 12.0634 8.92284 12.0144C8.85193 11.7099 8.67721 11.3275 8.46372 10.937C8.78896 10.9446 9.11378 10.909 9.42966 10.8312C10.175 10.6503 10.8728 10.2509 11.4477 9.67596L18.4514 2.67106C18.6998 2.42259 19.0368 2.283 19.3882 2.283C19.7396 2.283 20.0766 2.42259 20.3251 2.67106C20.5736 2.91953 20.7132 3.25653 20.7132 3.60792C20.7132 3.95931 20.5736 4.29631 20.3251 4.54478L15.6357 9.23342L13.5049 11.364C13.1847 11.6832 12.9767 12.0977 12.9122 12.5451C12.8476 12.9926 12.9299 13.449 13.1468 13.8457C13.3637 14.2424 13.7033 14.558 14.1149 14.7452C14.5264 14.9324 14.9875 14.9811 15.4291 14.8839C15.3886 15.2102 15.4273 15.5414 15.542 15.8495C15.6566 16.1577 15.8438 16.4337 16.0877 16.6541C16.3316 16.8746 16.625 17.033 16.9431 17.116C17.2613 17.1991 17.5947 17.2042 17.9152 17.1311C17.8848 17.4262 17.9206 17.7245 18.02 18.0041C18.1194 18.2837 18.2798 18.5376 18.4896 18.7474C18.8063 19.0646 19.2207 19.2655 19.6657 19.3177L14.9261 24.0577ZM22.4776 16.5061L21.6787 17.3048L20.7766 18.2069C20.5448 18.4381 20.2308 18.5679 19.9035 18.5679C19.5761 18.5679 19.2621 18.4381 19.0304 18.2069C18.7992 17.9752 18.6694 17.6612 18.6694 17.3338C18.6694 17.0065 18.7992 16.6925 19.0304 16.4607L20.7319 14.7592C20.9647 14.5328 21.2772 14.4072 21.6019 14.4096C21.9265 14.4119 22.2372 14.542 22.4667 14.7716C22.6962 15.0013 22.826 15.3121 22.828 15.6368C22.8301 15.9614 22.7042 16.2739 22.4776 16.5064V16.5061Z" fill="black"/>
<path d="M7.36009 4.28767C7.3947 4.32635 7.43682 4.35758 7.48388 4.37946C7.53094 4.40134 7.58196 4.41342 7.63383 4.41497C7.68571 4.41651 7.73736 4.40748 7.78564 4.38843C7.83391 4.36938 7.87781 4.34071 7.91466 4.30416C7.9515 4.26761 7.98052 4.22394 7.99996 4.17582C8.0194 4.1277 8.02884 4.07612 8.02771 4.02423C8.02659 3.97235 8.01492 3.92123 7.99341 3.874C7.97191 3.82676 7.94102 3.7844 7.90262 3.74948L5.98962 1.81658C5.91822 1.74447 5.82109 1.70367 5.71961 1.70317C5.61813 1.70267 5.52061 1.7425 5.4485 1.8139C5.37638 1.88531 5.33559 1.98243 5.33509 2.08391C5.33459 2.18539 5.37442 2.28292 5.44582 2.35503L7.36009 4.28767Z" fill="#57B560"/>
<path d="M8.83585 3.12023C8.8551 3.20475 8.90248 3.28023 8.97022 3.33431C9.03797 3.38839 9.12208 3.41786 9.20876 3.41789C9.23733 3.41786 9.26582 3.4147 9.2937 3.40846C9.34271 3.39734 9.38904 3.37668 9.43007 3.34766C9.47109 3.31863 9.50599 3.28181 9.53278 3.23929C9.55957 3.19677 9.57772 3.1494 9.58619 3.09986C9.59467 3.05033 9.59331 2.99962 9.58218 2.95061L8.98073 0.297914C8.97061 0.24794 8.95061 0.200493 8.92189 0.158361C8.89317 0.116229 8.85633 0.080262 8.81351 0.0525735C8.7707 0.024885 8.72278 0.00603372 8.67258 -0.00287263C8.62237 -0.011779 8.57089 -0.0105607 8.52117 0.000710646C8.47144 0.011982 8.42447 0.033079 8.38301 0.0627619C8.34155 0.0924447 8.30645 0.130115 8.27976 0.173558C8.25307 0.217001 8.23533 0.265342 8.22758 0.315738C8.21984 0.366134 8.22225 0.41757 8.23466 0.467023L8.83585 3.12023Z" fill="#57B560"/>
<path d="M10.9427 3.398C11.0385 3.43132 11.1435 3.42527 11.2348 3.38117C11.3261 3.33708 11.3962 3.25855 11.4296 3.16283L12.3224 0.593542C12.3557 0.497685 12.3496 0.392505 12.3054 0.301142C12.2612 0.209778 12.1825 0.139715 12.0867 0.106364C11.9908 0.0730136 11.8856 0.0791082 11.7943 0.123307C11.7029 0.167506 11.6328 0.246189 11.5995 0.342046L10.7068 2.91134C10.6736 3.00716 10.6798 3.11225 10.724 3.2035C10.7682 3.29476 10.8469 3.36472 10.9427 3.398Z" fill="#57B560"/>
<path d="M12.3477 4.2614C12.4114 4.34037 12.5038 4.3908 12.6047 4.40161C12.7056 4.41242 12.8066 4.38272 12.8856 4.31904L15.0027 2.61162C15.0418 2.58012 15.0744 2.54121 15.0986 2.49712C15.1227 2.45302 15.1379 2.4046 15.1433 2.35463C15.1488 2.30465 15.1443 2.2541 15.1302 2.20585C15.1161 2.1576 15.0926 2.11261 15.0611 2.07343C15.0296 2.03426 14.9907 2.00168 14.9466 1.97754C14.9025 1.9534 14.8541 1.93819 14.8041 1.93277C14.7541 1.92734 14.7035 1.93181 14.6553 1.94593C14.6071 1.96004 14.5621 1.98352 14.5229 2.01502L12.4053 3.72397C12.3265 3.78766 12.2762 3.88001 12.2654 3.98076C12.2546 4.08152 12.2842 4.18245 12.3477 4.2614Z" fill="#57B560"/>
</svg>
