<svg width="12" height="23" viewBox="0 0 12 23" fill="none" xmlns="http://www.w3.org/2000/svg">
<path d="M3 15.5L6 18.5L9 15.5" stroke="black" stroke-linecap="round" stroke-linejoin="round"/>
<path d="M9 7.5L6 4.5L3 7.5" stroke="black" stroke-linecap="round" stroke-linejoin="round"/>
</svg>
